<?xml version="1.0" encoding="UTF-8"?>
<glyph name="exclam" format="1">
  <advance width="600"/>
  <unicode hex="0021"/>
  <outline>
    <contour>
      <point x="240" y="264" type="line"/>
      <point x="344" y="264" type="line"/>
      <point x="426" y="522" type="line"/>
      <point x="456" y="670" type="line"/>
      <point x="292" y="670" type="line"/>
      <point x="268" y="522" type="line"/>
    </contour>
    <contour>
      <point x="248" y="-12" type="curve" smooth="yes"/>
      <point x="318" y="-12"/>
      <point x="366" y="42"/>
      <point x="366" y="108" type="curve" smooth="yes"/>
      <point x="366" y="160"/>
      <point x="330" y="198"/>
      <point x="280" y="198" type="curve" smooth="yes"/>
      <point x="210" y="198"/>
      <point x="162" y="144"/>
      <point x="162" y="78" type="curve" smooth="yes"/>
      <point x="162" y="26"/>
      <point x="198" y="-12"/>
    </contour>
  </outline>
</glyph>
