<?xml version="1.0" encoding="UTF-8"?>
<glyph name="Ntilde" format="1">
  <advance width="600"/>
  <unicode hex="00D1"/>
  <outline>
    <component base="N"/>
    <component base="tildecmb.cap" xOffset="-4"/>
  </outline>
  <lib>
    <dict>
      <key>com.typemytype.robofont.mark</key>
      <array>
        <real>0.30000000000000004</real>
        <real>0.6294117647058824</real>
        <integer>1</integer>
        <integer>1</integer>
      </array>
    </dict>
  </lib>
</glyph>
