<?xml version="1.0" encoding="UTF-8"?>
<glyph name="oesmall" format="1">
  <advance width="600"/>
  <unicode hex="0276"/>
  <outline>
    <contour>
      <point x="185" y="-12" type="curve" smooth="yes"/>
      <point x="218" y="-12"/>
      <point x="245" y="-8"/>
      <point x="274" y="0" type="curve"/>
      <point x="537" y="0" type="line"/>
      <point x="549" y="62" type="line"/>
      <point x="336" y="62" type="line"/>
      <point x="368" y="224" type="line"/>
      <point x="536" y="224" type="line"/>
      <point x="547" y="284" type="line"/>
      <point x="380" y="284" type="line"/>
      <point x="408" y="424" type="line"/>
      <point x="612" y="424" type="line"/>
      <point x="624" y="486" type="line"/>
      <point x="371" y="486" type="line"/>
      <point x="336" y="494"/>
      <point x="308" y="498"/>
      <point x="275" y="498" type="curve" smooth="yes"/>
      <point x="119" y="498"/>
      <point x="3" y="360"/>
      <point x="3" y="178" type="curve" smooth="yes"/>
      <point x="3" y="53"/>
      <point x="76" y="-12"/>
    </contour>
    <contour>
      <point x="197" y="52" type="curve" smooth="yes"/>
      <point x="126" y="52"/>
      <point x="80" y="95"/>
      <point x="80" y="185" type="curve" smooth="yes"/>
      <point x="80" y="319"/>
      <point x="163" y="434"/>
      <point x="273" y="434" type="curve" smooth="yes"/>
      <point x="294" y="434"/>
      <point x="315" y="429"/>
      <point x="333" y="424" type="curve"/>
      <point x="264" y="63" type="line"/>
      <point x="241" y="57"/>
      <point x="218" y="52"/>
    </contour>
    <contour>
      <point x="376" y="507" type="move" name="aboveLC"/>
    </contour>
    <contour>
      <point x="303" y="-20" type="move" name="belowLC"/>
    </contour>
  </outline>
</glyph>
