<?xml version="1.0" encoding="UTF-8"?>
<glyph name="m.sups" format="1">
  <advance width="600"/>
  <outline>
    <contour>
      <point x="70" y="395" type="line"/>
      <point x="132" y="395" type="line"/>
      <point x="132" y="624" type="line"/>
      <point x="163" y="657"/>
      <point x="186" y="671"/>
      <point x="210" y="671" type="curve" smooth="yes"/>
      <point x="256" y="671"/>
      <point x="269" y="640"/>
      <point x="269" y="589" type="curve" smooth="yes"/>
      <point x="269" y="395" type="line"/>
      <point x="331" y="395" type="line"/>
      <point x="331" y="624" type="line"/>
      <point x="362" y="657"/>
      <point x="385" y="671"/>
      <point x="408" y="671" type="curve" smooth="yes"/>
      <point x="454" y="671"/>
      <point x="467" y="640"/>
      <point x="467" y="589" type="curve" smooth="yes"/>
      <point x="467" y="395" type="line"/>
      <point x="529" y="395" type="line"/>
      <point x="529" y="598" type="line" smooth="yes"/>
      <point x="529" y="673"/>
      <point x="500" y="724"/>
      <point x="429" y="724" type="curve" smooth="yes"/>
      <point x="385" y="724"/>
      <point x="350" y="696"/>
      <point x="320" y="664" type="curve"/>
      <point x="306" y="704"/>
      <point x="275" y="724"/>
      <point x="230" y="724" type="curve" smooth="yes"/>
      <point x="187" y="724"/>
      <point x="156" y="700"/>
      <point x="129" y="671" type="curve"/>
      <point x="126" y="671" type="line"/>
      <point x="120" y="716" type="line"/>
      <point x="70" y="716" type="line"/>
    </contour>
  </outline>
</glyph>
