<?xml version="1.0" encoding="UTF-8"?>
<glyph name="r" format="1">
  <advance width="600"/>
  <unicode hex="0072"/>
  <outline>
    <contour>
      <point x="104" y="0" type="line"/>
      <point x="276" y="0" type="line"/>
      <point x="276" y="248" type="line"/>
      <point x="313" y="332"/>
      <point x="374" y="362"/>
      <point x="431" y="362" type="curve" smooth="yes"/>
      <point x="467" y="362"/>
      <point x="488" y="357"/>
      <point x="518" y="348" type="curve"/>
      <point x="552" y="492" type="line"/>
      <point x="524" y="504"/>
      <point x="503" y="512"/>
      <point x="457" y="512" type="curve" smooth="yes"/>
      <point x="382" y="512"/>
      <point x="310" y="476"/>
      <point x="262" y="394" type="curve"/>
      <point x="258" y="394" type="line"/>
      <point x="245" y="500" type="line"/>
      <point x="104" y="500" type="line"/>
    </contour>
    <contour>
      <point x="350" y="520" type="move" name="aboveLC"/>
    </contour>
    <contour>
      <point x="194" y="0" type="move" name="baseLC"/>
    </contour>
    <contour>
      <point x="194" y="-20" type="move" name="belowLC"/>
    </contour>
  </outline>
</glyph>
